# No previous file for Coahuilteco
owner = G67
controller = G67
add_core = G67
culture = kalavendhi
religion = gods_of_the_taychend
capital = ""

hre = no

base_tax = 3
base_production = 3
base_manpower = 2

trade_goods = tropical_wood

1420.1.1 = {	
	owner = G64
	controller = G64
	add_core = G64
}