#307 - Vladimir

owner = A30
controller = A30
add_core = A30
culture = wexonard
religion = regent_court

hre = yes

base_tax = 3
base_production = 3
base_manpower = 3

trade_goods = grain

capital = ""

is_city = yes










add_permanent_province_modifier = {
	name = halfling_minority_coexisting_small
	duration = -1
}

